{
  "project_info": {
    "project_number": "321780487637",
    "firebase_url": "https://android-notification-7f351.firebaseio.com",
    "project_id": "android-notification-7f351",
    "storage_bucket": "android-notification-7f351.appspot.com"
  },
  "client": [
    {
      "client_info": {
        "mobilesdk_app_id": "1:321780487637:android:20286c74590b5c74",
        "android_client_info": {
          "package_name": "com.io.tokkhi.popcorn"
        }
      },
      "oauth_client": [
        {
          "client_id": "321780487637-3ksu1kc08u5etgkin008ha26g1eva68d.apps.googleusercontent.com",
          "client_type": 1,
          "android_info": {
            "package_name": "com.example.tokkhi.popcorn",
            "certificate_hash": "8855a18dc482a44dbcec19ce235ceeb04cf65df9"
          }
        },
        {
          "client_id": "321780487637-6hnpc4kjs55i0nv20o9jrkhe9ool0oo4.apps.googleusercontent.com",
          "client_type": 3
        }
      ],
      "api_key": [
        {
          "current_key": "AIzaSyBmbl3g9-cQ3BFJC0Qcv5dfTiVE7NaxQnA"
        }
      ],
      "services": {
        "analytics_service": {
          "status": 1
        },
        "appinvite_service": {
          "status": 2,
          "other_platform_oauth_client": [
            {
              "client_id": "321780487637-6hnpc4kjs55i0nv20o9jrkhe9ool0oo4.apps.googleusercontent.com",
              "client_type": 3
            }
          ]
        },
        "ads_service": {
          "status": 2
        }
      }
    }
  ],
  "configuration_version": "1"
}