<?xml version="1.0" encoding="utf-8"?>
<!-- Generator: Adobe Illustrator 16.0.0, SVG Export Plug-In . SVG Version: 6.00 Build 0)  -->
<!DOCTYPE svg PUBLIC "-//W3C//DTD SVG 1.1//EN" "http://www.w3.org/Graphics/SVG/1.1/DTD/svg11.dtd">
<svg version="1.1" id="Layer_1" xmlns="http://www.w3.org/2000/svg" xmlns:xlink="http://www.w3.org/1999/xlink" x="0px" y="0px"
	 width="79.2px" height="79.2px" viewBox="0 0 79.2 79.2" enable-background="new 0 0 79.2 79.2" xml:space="preserve">
<g id="Avatar_15">
	<path fill-rule="evenodd" clip-rule="evenodd" fill="#DBDBDB" d="M15.85,72.995h46.643V62.379c0-8.802-7.785-16.005-17.302-16.005
		H33.152c-9.516,0-17.303,7.203-17.303,16.005V72.995z"/>
	<path fill-rule="evenodd" clip-rule="evenodd" fill="#1C1C1C" d="M16.321,72.524h45.7V62.379c0-4.266-1.888-8.146-4.93-10.959
		c-3.051-2.822-7.264-4.574-11.901-4.574H33.152c-4.638,0-8.85,1.752-11.901,4.574c-3.042,2.813-4.93,6.693-4.93,10.959V72.524
		L16.321,72.524z M62.492,73.466H15.85c-0.26,0-0.471-0.21-0.471-0.471V62.379c0-4.536,2.006-8.659,5.235-11.646
		c3.221-2.979,7.659-4.829,12.538-4.829H45.19c4.879,0,9.317,1.85,12.538,4.829c3.23,2.987,5.235,7.11,5.235,11.646v10.616
		C62.964,73.256,62.753,73.466,62.492,73.466z"/>
	<path fill-rule="evenodd" clip-rule="evenodd" fill="#1C1C1C" d="M24.871,58.853c0.085-0.245,0.354-0.374,0.598-0.289
		c0.245,0.086,0.375,0.354,0.289,0.598c-0.271,0.779-0.482,1.6-0.624,2.45c-0.138,0.824-0.21,1.681-0.21,2.561v8.353h28.495v-8.353
		c0-0.88-0.072-1.736-0.21-2.561c-0.142-0.851-0.353-1.671-0.624-2.45c-0.085-0.244,0.044-0.513,0.289-0.598
		c0.244-0.085,0.513,0.044,0.598,0.289c0.29,0.832,0.515,1.704,0.665,2.604c0.146,0.883,0.225,1.79,0.225,2.715v8.823
		c0,0.261-0.211,0.471-0.472,0.471H24.453c-0.26,0-0.472-0.21-0.472-0.471v-8.823c0-0.925,0.078-1.832,0.225-2.715
		C24.356,60.557,24.581,59.685,24.871,58.853z"/>
	<path fill-rule="evenodd" clip-rule="evenodd" fill="#FFC278" d="M34.123,41.479h9.828v6.118c0,0.368-0.056,0.726-0.16,1.066
		c-0.77,3.466-3.684,5.069-4.759,5.928c-1.172-0.936-4.603-2.524-4.892-6.644c-0.012-0.115-0.018-0.232-0.018-0.351V41.479z"/>
	<path fill-rule="evenodd" clip-rule="evenodd" fill="#1C1C1C" d="M34.123,41.007h10.299v6.59c0,0.205-0.016,0.407-0.045,0.608
		c-0.029,0.191-0.074,0.386-0.133,0.58c-0.702,3.124-3.011,4.786-4.365,5.762c-0.209,0.15-0.395,0.284-0.555,0.411l-0.292,0.234
		l-0.293-0.234c-0.184-0.146-0.414-0.303-0.679-0.482c-1.546-1.05-4.131-2.805-4.39-6.497c-0.005-0.063-0.01-0.125-0.013-0.185
		c-0.004-0.084-0.006-0.149-0.006-0.197v-6.59H34.123L34.123,41.007z M43.48,41.949h-8.887v5.647l0.003,0.153
		c0.002,0.053,0.006,0.104,0.011,0.153l0.002,0.013c0.227,3.236,2.574,4.83,3.978,5.783c0.16,0.109,0.31,0.21,0.442,0.304
		l0.302-0.218c1.25-0.9,3.383-2.437,4.002-5.224l0.009-0.034c0.045-0.146,0.08-0.299,0.104-0.462
		c0.022-0.152,0.034-0.309,0.034-0.469V41.949z"/>
	<path fill-rule="evenodd" clip-rule="evenodd" fill="#FFC278" d="M39.249,11.188L39.249,11.188c6.395,0,11.626,5.231,11.626,11.625
		v8.553c0,6.395-5.231,11.626-11.626,11.626l0,0c-6.395,0-11.626-5.231-11.626-11.626v-8.553
		C27.623,16.419,32.854,11.188,39.249,11.188z"/>
	<path fill-rule="evenodd" clip-rule="evenodd" fill="#1C1C1C" d="M39.249,10.717c3.327,0,6.352,1.361,8.544,3.553
		c2.191,2.192,3.553,5.217,3.553,8.543v8.553c0,3.327-1.361,6.352-3.553,8.544c-2.192,2.192-5.217,3.553-8.544,3.553
		s-6.352-1.36-8.544-3.553s-3.553-5.217-3.553-8.544v-8.553c0-3.326,1.36-6.352,3.553-8.543S35.922,10.717,39.249,10.717
		L39.249,10.717z M47.126,14.937c-2.021-2.022-4.811-3.278-7.877-3.278c-3.067,0-5.856,1.255-7.878,3.278
		c-2.022,2.021-3.277,4.811-3.277,7.877v8.553c0,3.067,1.255,5.855,3.277,7.878c2.021,2.021,4.811,3.277,7.878,3.277
		c3.066,0,5.855-1.256,7.877-3.277c2.022-2.022,3.277-4.811,3.277-7.878v-8.553C50.403,19.747,49.148,16.958,47.126,14.937z"/>
	<path fill-rule="evenodd" clip-rule="evenodd" fill="#1C1C1C" d="M39.502,33.209c0,0.26-0.211,0.471-0.471,0.471
		s-0.471-0.211-0.471-0.471c0-0.79,0.003-1.196,0.224-1.5c0.267-0.367,0.613-0.384,1.292-0.384c0.271,0,0.432-0.142,0.498-0.32
		c0.03-0.081,0.046-0.171,0.046-0.261c0.001-0.09-0.014-0.181-0.044-0.267c-0.053-0.154-0.158-0.274-0.303-0.274
		c-0.26,0-0.471-0.211-0.471-0.471v-3.551c0-0.26,0.211-0.471,0.471-0.471s0.471,0.211,0.471,0.471v3.171
		c0.352,0.146,0.597,0.453,0.723,0.82c0.062,0.178,0.093,0.376,0.092,0.575c-0.001,0.198-0.035,0.398-0.104,0.585
		c-0.195,0.521-0.643,0.935-1.378,0.935c-0.358,0-0.526-0.012-0.53-0.007C39.503,32.319,39.502,32.62,39.502,33.209z"/>
	<path fill-rule="evenodd" clip-rule="evenodd" fill="#FFFFFF" d="M43.117,34.923c-0.344,1.941-2.05,3.428-4.086,3.428l0,0
		c-2.036,0-3.742-1.486-4.086-3.428H43.117z"/>
	<path fill-rule="evenodd" clip-rule="evenodd" fill="#1C1C1C" d="M43.576,35.028c-0.197,1.08-0.773,2.032-1.583,2.712
		c-0.804,0.675-1.838,1.082-2.962,1.082s-2.158-0.407-2.962-1.082c-0.816-0.685-1.395-1.646-1.588-2.736
		c-0.045-0.256,0.127-0.5,0.383-0.545c0.027-0.005,0.054-0.007,0.081-0.007h8.172c0.261,0,0.471,0.211,0.471,0.471
		C43.588,34.959,43.584,34.994,43.576,35.028L43.576,35.028z M41.39,37.02c0.508-0.427,0.9-0.987,1.121-1.626h-6.959
		c0.221,0.639,0.613,1.199,1.121,1.626c0.64,0.536,1.463,0.86,2.358,0.86S40.75,37.556,41.39,37.02z"/>
	<path fill-rule="evenodd" clip-rule="evenodd" fill="#FFC278" d="M27.623,25.265l-0.007,0.001
		c-0.061-0.511-0.498-0.911-1.025-0.911h-0.796c-0.567,0-1.031,0.464-1.031,1.031v3.288l0,0c0,1.698,1.239,3.121,2.859,3.408v-3.408
		v-3.288V25.265z"/>
	<path fill-rule="evenodd" clip-rule="evenodd" fill="#1C1C1C" d="M27.152,25.348l-0.004-0.028
		c-0.017-0.138-0.085-0.263-0.186-0.353c-0.099-0.088-0.229-0.142-0.372-0.142h-0.796c-0.153,0-0.294,0.063-0.396,0.165
		s-0.165,0.242-0.165,0.396v3.288c0,0.728,0.264,1.397,0.699,1.917c0.323,0.386,0.742,0.689,1.219,0.873V25.348L27.152,25.348z
		 M27.588,24.265c0.145,0.129,0.265,0.285,0.352,0.462l0.154-0.029v7.946l-0.552-0.098c-0.928-0.164-1.746-0.657-2.329-1.353
		c-0.574-0.684-0.921-1.563-0.921-2.52v-3.288c0-0.413,0.17-0.789,0.441-1.062c0.272-0.271,0.647-0.44,1.062-0.44h0.796
		C26.973,23.884,27.322,24.027,27.588,24.265z"/>
	<path fill-rule="evenodd" clip-rule="evenodd" fill="#FFC278" d="M50.875,25.265l0.007,0.001c0.06-0.511,0.497-0.911,1.024-0.911
		h0.796c0.568,0,1.032,0.464,1.032,1.031v3.288l0,0c0,1.698-1.24,3.121-2.859,3.408v-3.408v-3.288V25.265z"/>
	<path fill-rule="evenodd" clip-rule="evenodd" fill="#1C1C1C" d="M51.349,25.319l-0.003,0.03v6.114
		c0.477-0.184,0.895-0.487,1.219-0.873c0.436-0.52,0.699-1.189,0.699-1.917v-3.288c0-0.153-0.063-0.294-0.165-0.396
		c-0.103-0.102-0.242-0.165-0.396-0.165h-0.796c-0.143,0-0.272,0.054-0.371,0.142C51.434,25.057,51.365,25.182,51.349,25.319
		L51.349,25.319z M50.558,24.728c0.086-0.177,0.206-0.334,0.352-0.463c0.266-0.237,0.616-0.381,0.997-0.381h0.796
		c0.414,0,0.79,0.169,1.063,0.44c0.271,0.272,0.44,0.648,0.44,1.062v3.288c0,0.956-0.347,1.836-0.92,2.52
		c-0.583,0.695-1.401,1.188-2.329,1.353l-0.553,0.098v-7.945L50.558,24.728z"/>
	<path fill-rule="evenodd" clip-rule="evenodd" fill="#DB5940" d="M27.762,15.742c1.922,0,1.828,0.852,1.828,2.496v2.692v2.202
		c0,1.908-0.738,5.19-2.86,5.834v-5.459v-6C26.75,16.91,26.986,15.742,27.762,15.742z"/>
	<path fill-rule="evenodd" clip-rule="evenodd" fill="#1C1C1C" d="M27.762,15.271c2.305,0,2.302,0.938,2.297,2.748v0.219h0.002
		v4.895c0,1.149-0.258,2.778-0.901,4.092c-0.505,1.028-1.247,1.874-2.293,2.19c-0.248,0.075-0.51-0.064-0.585-0.313
		c-0.014-0.046-0.021-0.091-0.021-0.136h-0.002V17.507c0-0.021,0.002-0.04,0.004-0.06c0.02-0.409,0.126-1.024,0.39-1.476
		C26.891,15.563,27.245,15.271,27.762,15.271L27.762,15.271z M29.121,18.019c0.003-1.19,0.005-1.807-1.359-1.807
		c-0.118,0-0.217,0.098-0.296,0.233c-0.179,0.306-0.251,0.744-0.266,1.041c0.078,3.544,0.001,7.176,0.001,10.731
		c0.463-0.324,0.831-0.826,1.115-1.406c0.573-1.169,0.803-2.638,0.803-3.68v-4.895h0.001L29.121,18.019z"/>
	<path fill-rule="evenodd" clip-rule="evenodd" fill="#DB5940" d="M51.599,16.364c-0.061-0.875-0.498-1.56-1.024-1.56h-0.797
		l-0.023,0.001h-0.003l-0.02,0.001l-0.003,0l-0.015,0.001l-0.009,0.001l-0.016,0.001c-0.86,0.114-1.024,1.615-1.02,3.01
		c0.004,1.452,0.076,2.907,0.076,4.375c0,1.907,0.737,5.189,2.859,5.833V22.57v-6L51.599,16.364z"/>
	<path fill-rule="evenodd" clip-rule="evenodd" fill="#1C1C1C" d="M51.13,16.396c-0.025-0.359-0.122-0.671-0.264-0.887
		c-0.095-0.145-0.199-0.233-0.292-0.233c-0.252,0-0.588-0.021-0.828,0.002c-0.198,0.03-0.337,0.298-0.437,0.677
		c-0.137,0.52-0.173,1.204-0.171,1.866c0.002,0.688,0.02,1.392,0.037,2.095c0.021,0.791,0.041,1.584,0.041,2.28
		c0,1.042,0.229,2.51,0.803,3.68c0.284,0.58,0.651,1.082,1.115,1.406c0-3.553-0.086-7.196,0-10.734L51.13,16.396L51.13,16.396z
		 M51.649,14.994c0.228,0.347,0.383,0.818,0.418,1.339l0.006,0.182c0.002,0.018,0.003,0.037,0.003,0.056v11.458h-0.002
		c0,0.045-0.006,0.091-0.02,0.137c-0.075,0.247-0.338,0.388-0.586,0.313c-1.045-0.317-1.788-1.162-2.292-2.19
		c-0.645-1.314-0.902-2.943-0.902-4.092c0-0.822-0.018-1.541-0.036-2.258c-0.018-0.703-0.036-1.403-0.038-2.117
		c-0.002-0.732,0.041-1.497,0.2-2.105c0.195-0.742,0.565-1.278,1.221-1.369c0.054-0.008,0.102-0.011,0.156-0.013h0.797
		C51.004,14.333,51.38,14.583,51.649,14.994z"/>
	<path fill-rule="evenodd" clip-rule="evenodd" fill="#DB5940" d="M39.729,9.387c-4.887,0-10.079,0.367-10.413,6.355
		c-0.175,3.132,3.686,3.639,6.409,3.639h8.008c2.576,0,4.95-0.746,6.819-1.99c2.191-1.457,3.688-3.595,4.005-6.014
		c0.041-0.315,0.063-0.636,0.063-0.96c0-0.951-0.183-1.869-0.52-2.731c-1.793,1.07-3.992,1.702-6.362,1.702H39.729z"/>
	<path fill-rule="evenodd" clip-rule="evenodd" fill="#1C1C1C" d="M39.729,9.857c-2.394,0-4.857,0.088-6.728,0.894
		c-1.791,0.771-3.062,2.24-3.216,5.016c-0.073,1.315,0.72,2.087,1.823,2.533c1.214,0.49,2.799,0.61,4.116,0.61h8.008
		c1.223,0,2.395-0.173,3.48-0.489c1.125-0.329,2.165-0.813,3.08-1.422c1.059-0.704,1.947-1.574,2.603-2.558
		c0.633-0.951,1.05-2.007,1.195-3.125c0.019-0.141,0.033-0.291,0.044-0.447c0.009-0.14,0.013-0.291,0.013-0.452
		c0-0.445-0.041-0.879-0.121-1.298c-0.048-0.252-0.11-0.503-0.186-0.749c-0.817,0.436-1.704,0.786-2.643,1.037
		c-1.094,0.292-2.257,0.451-3.461,0.451H39.729L39.729,9.857z M32.631,9.886c2.031-0.875,4.606-0.971,7.099-0.971h8.009
		c1.123,0,2.205-0.146,3.219-0.417c1.051-0.281,2.029-0.695,2.902-1.216l0.477-0.285l0.202,0.517
		c0.181,0.461,0.319,0.939,0.413,1.432c0.092,0.483,0.14,0.975,0.14,1.471c0,0.162-0.006,0.332-0.018,0.511
		c-0.011,0.165-0.027,0.335-0.051,0.51c-0.165,1.266-0.634,2.457-1.343,3.522c-0.726,1.09-1.704,2.05-2.867,2.824
		c-0.989,0.657-2.116,1.182-3.338,1.539c-1.176,0.343-2.436,0.529-3.741,0.529h-8.008c-1.406,0-3.113-0.134-4.466-0.68
		c-1.464-0.591-2.514-1.639-2.412-3.456C29.027,12.504,30.521,10.795,32.631,9.886z"/>
	<circle fill-rule="evenodd" clip-rule="evenodd" fill="#3F5359" cx="33.778" cy="27.363" r="1.396"/>
	<path fill-rule="evenodd" clip-rule="evenodd" fill="#1C1C1C" d="M33.778,25.496c0.515,0,0.98,0.21,1.318,0.547l0.002,0.002
		c0.338,0.338,0.547,0.805,0.547,1.318c0,0.516-0.209,0.982-0.547,1.32s-0.805,0.547-1.32,0.547c-0.514,0-0.979-0.209-1.317-0.547
		l-0.002-0.002c-0.338-0.339-0.547-0.805-0.547-1.318c0-0.516,0.209-0.982,0.547-1.32S33.264,25.496,33.778,25.496L33.778,25.496z
		 M34.434,26.708c-0.167-0.166-0.398-0.27-0.655-0.27c-0.255,0-0.486,0.104-0.654,0.271c-0.167,0.168-0.271,0.398-0.271,0.654
		c0,0.257,0.103,0.488,0.27,0.654l0.001,0.002c0.166,0.166,0.397,0.269,0.654,0.269c0.256,0,0.487-0.104,0.654-0.271
		s0.271-0.398,0.271-0.654S34.601,26.876,34.434,26.708z"/>
	<circle fill-rule="evenodd" clip-rule="evenodd" fill="#3F5359" cx="44.719" cy="27.363" r="1.396"/>
	<path fill-rule="evenodd" clip-rule="evenodd" fill="#1C1C1C" d="M44.719,26.438c-0.256,0-0.487,0.104-0.654,0.271l-0.001-0.001
		c-0.166,0.168-0.27,0.399-0.27,0.655s0.104,0.487,0.271,0.654s0.398,0.271,0.654,0.271s0.487-0.104,0.654-0.271
		s0.271-0.398,0.271-0.654s-0.103-0.487-0.27-0.655C45.207,26.542,44.975,26.438,44.719,26.438L44.719,26.438z M43.398,26.043
		c0.338-0.338,0.805-0.547,1.32-0.547c0.515,0,0.98,0.21,1.318,0.547l0.002,0.002c0.338,0.338,0.547,0.805,0.547,1.318
		c0,0.516-0.209,0.982-0.547,1.32s-0.805,0.547-1.32,0.547s-0.982-0.209-1.32-0.547s-0.547-0.805-0.547-1.32
		c0-0.514,0.209-0.98,0.547-1.318V26.043z"/>
	<path fill-rule="evenodd" clip-rule="evenodd" fill="#DB5940" d="M39.032,54.591c-1.172-0.936-4.603-2.524-4.892-6.644
		c-0.012-0.115-0.018-0.232-0.018-0.351v-1.223h-0.971c-0.862,0-1.71,0.06-2.539,0.174c0.242,8.284,6.39,10.729,8.54,12.127
		c2.149-1.398,8.297-3.954,8.539-12.132c-0.817-0.111-1.652-0.169-2.502-0.169h-1.239v1.223c0,0.368-0.056,0.726-0.16,1.066
		C43.021,52.129,40.107,53.732,39.032,54.591z"/>
	<path fill-rule="evenodd" clip-rule="evenodd" fill="#1C1C1C" d="M38.739,54.958c-0.184-0.146-0.414-0.303-0.679-0.482
		c-1.546-1.05-4.131-2.805-4.39-6.497c-0.005-0.063-0.01-0.125-0.013-0.185c-0.004-0.084-0.006-0.149-0.006-0.197v-0.751h-0.5
		c-0.426,0-0.841,0.014-1.244,0.041c-0.272,0.019-0.541,0.043-0.807,0.073c0.375,6.706,4.872,9.312,7.353,10.749
		c0.254,0.146,0.487,0.282,0.699,0.411c0.195-0.12,0.415-0.249,0.653-0.388c2.471-1.45,7.017-4.118,7.398-10.776
		c-0.26-0.029-0.522-0.053-0.79-0.07c-0.396-0.026-0.805-0.04-1.225-0.04h-0.769v0.751c0,0.205-0.016,0.407-0.045,0.608
		c-0.029,0.191-0.074,0.386-0.133,0.58c-0.702,3.124-3.011,4.786-4.365,5.762c-0.209,0.15-0.395,0.284-0.555,0.411l-0.292,0.234
		L38.739,54.958L38.739,54.958z M38.587,53.699c0.16,0.109,0.31,0.21,0.442,0.304l0.302-0.218c1.25-0.9,3.383-2.437,4.002-5.224
		l0.009-0.034c0.045-0.146,0.08-0.299,0.104-0.462c0.022-0.152,0.034-0.309,0.034-0.469v-1.693h1.71
		c0.425,0,0.854,0.015,1.287,0.044c0.426,0.029,0.852,0.072,1.277,0.13l0.42,0.057l-0.013,0.422
		c-0.223,7.493-5.201,10.414-7.881,11.985c-0.333,0.195-0.628,0.369-0.872,0.527l-0.256,0.167l-0.256-0.167
		c-0.243-0.158-0.559-0.341-0.914-0.547c-2.691-1.559-7.619-4.413-7.839-11.961l-0.013-0.421l0.419-0.058
		c0.432-0.059,0.864-0.104,1.295-0.133c0.439-0.03,0.876-0.046,1.307-0.046h1.441v1.693l0.003,0.153
		c0.002,0.053,0.006,0.104,0.011,0.153l0.002,0.013C34.836,51.152,37.184,52.746,38.587,53.699z"/>
	<path fill-rule="evenodd" clip-rule="evenodd" fill="#1C1C1C" d="M27.506,47.373c0.758,8.594,6.921,12.547,10.383,14.768
		c0.475,0.304,0.899,0.576,1.263,0.831c0.386-0.268,0.84-0.552,1.349-0.87c3.448-2.157,9.471-5.924,10.403-14.716l0.935,0.1
		c-0.981,9.247-7.251,13.169-10.842,15.415c-0.626,0.392-1.169,0.731-1.565,1.025l-0.279,0.208l-0.28-0.208
		c-0.381-0.283-0.896-0.613-1.49-0.994c-3.602-2.311-10.015-6.424-10.813-15.479L27.506,47.373z"/>
	<path fill-rule="evenodd" clip-rule="evenodd" fill="#1C1C1C" d="M31.229,24.815c-0.184,0.183-0.481,0.182-0.664-0.002
		c-0.183-0.185-0.182-0.481,0.002-0.664c0.419-0.419,0.919-0.757,1.474-0.986l0.025-0.01c0.531-0.217,1.109-0.336,1.713-0.336
		c0.613,0,1.199,0.123,1.736,0.346h0.002c0.556,0.229,1.056,0.567,1.475,0.986c0.184,0.183,0.185,0.479,0.002,0.664
		c-0.183,0.184-0.48,0.185-0.664,0.002c-0.333-0.333-0.73-0.602-1.173-0.784c-0.422-0.176-0.888-0.272-1.378-0.272
		c-0.481,0-0.938,0.094-1.355,0.263l-0.021,0.01C31.959,24.214,31.562,24.482,31.229,24.815L31.229,24.815z M42.17,24.815
		c-0.184,0.184-0.481,0.184-0.665,0c-0.185-0.184-0.185-0.482,0-0.666c0.418-0.418,0.918-0.756,1.476-0.986l0.025-0.01
		c0.53-0.217,1.109-0.336,1.713-0.336c0.612,0,1.199,0.123,1.736,0.346h0.002c0.558,0.23,1.059,0.568,1.477,0.986
		c0.184,0.184,0.184,0.482,0,0.666c-0.185,0.184-0.482,0.184-0.667,0c-0.333-0.334-0.73-0.603-1.17-0.784
		c-0.422-0.176-0.888-0.272-1.378-0.272c-0.481,0-0.939,0.094-1.355,0.263l-0.022,0.01C42.901,24.213,42.504,24.481,42.17,24.815z"
		/>
	<path fill-rule="evenodd" clip-rule="evenodd" fill="#1C1C1C" d="M29.436,14.942c-0.172-0.194-0.153-0.491,0.041-0.662
		c0.194-0.172,0.49-0.154,0.662,0.041c0.665,0.75,1.757,1.215,3.135,1.495c1.439,0.292,3.182,0.378,5.08,0.368
		c0.259-0.001,0.471,0.208,0.471,0.467c0.002,0.259-0.208,0.47-0.467,0.472c-1.955,0.01-3.758-0.08-5.269-0.387
		C31.518,16.416,30.251,15.86,29.436,14.942z"/>
	<path fill-rule="evenodd" clip-rule="evenodd" fill="#1C1C1C" d="M28.601,10.689c-0.001-0.259,0.208-0.47,0.468-0.471
		c0.259-0.001,0.47,0.208,0.471,0.467l0.021,5.31c0.001,0.259-0.208,0.47-0.467,0.471c-0.114,0-0.219-0.04-0.301-0.107l-0.001,0.001
		l-3.309-2.733c-0.2-0.166-0.229-0.462-0.063-0.662c0.165-0.2,0.462-0.228,0.662-0.063l2.536,2.094L28.601,10.689z"/>
</g>
</svg>
