<?xml version="1.0" encoding="utf-8"?>
<!-- Generator: Adobe Illustrator 16.0.0, SVG Export Plug-In . SVG Version: 6.00 Build 0)  -->
<!DOCTYPE svg PUBLIC "-//W3C//DTD SVG 1.1//EN" "http://www.w3.org/Graphics/SVG/1.1/DTD/svg11.dtd">
<svg version="1.1" id="Layer_1" xmlns="http://www.w3.org/2000/svg" xmlns:xlink="http://www.w3.org/1999/xlink" x="0px" y="0px"
	 width="79.2px" height="79.2px" viewBox="0 0 79.2 79.2" enable-background="new 0 0 79.2 79.2" xml:space="preserve">
<g id="Avatar_23">
	<path fill-rule="evenodd" clip-rule="evenodd" fill="#DBDBDB" d="M16.247,72.484H62.89V61.868c0-8.803-7.786-16.005-17.303-16.005
		h-1.238v-1.837v-3.06H34.52v4.896h-0.971c-9.516,0-17.302,7.202-17.302,16.005V72.484z"/>
	<path fill-rule="evenodd" clip-rule="evenodd" fill="#1C1C1C" d="M16.718,72.014h45.701V61.868c0-4.267-1.888-8.146-4.93-10.959
		c-3.052-2.822-7.265-4.574-11.902-4.574h-1.238c-0.26,0-0.471-0.212-0.471-0.472v-4.426h-8.887v4.426
		c0,0.26-0.211,0.472-0.471,0.472h-0.971c-4.637,0-8.85,1.752-11.901,4.574c-3.042,2.813-4.93,6.693-4.93,10.959V72.014
		L16.718,72.014z M62.89,72.955H16.247c-0.26,0-0.471-0.211-0.471-0.471V61.868c0-4.536,2.005-8.659,5.235-11.647
		c3.22-2.979,7.659-4.828,12.538-4.828h0.5v-4.426c0-0.26,0.21-0.471,0.471-0.471h9.829c0.26,0,0.471,0.211,0.471,0.471v4.426h0.768
		c4.879,0,9.317,1.85,12.538,4.828c3.23,2.988,5.235,7.111,5.235,11.647v10.616C63.36,72.744,63.149,72.955,62.89,72.955z"/>
	<path fill-rule="evenodd" clip-rule="evenodd" fill="#1C1C1C" d="M25.268,58.342c0.085-0.245,0.353-0.374,0.598-0.289
		c0.245,0.086,0.375,0.354,0.289,0.598c-0.271,0.779-0.482,1.599-0.625,2.45c-0.137,0.824-0.209,1.681-0.209,2.561v8.353h28.496
		v-8.353c0-0.88-0.073-1.736-0.21-2.561c-0.142-0.852-0.354-1.671-0.625-2.45c-0.085-0.244,0.045-0.512,0.289-0.598
		c0.245-0.085,0.513,0.044,0.599,0.289c0.289,0.832,0.514,1.703,0.664,2.604c0.147,0.882,0.225,1.79,0.225,2.715v8.823
		c0,0.26-0.211,0.471-0.471,0.471H24.85c-0.26,0-0.471-0.211-0.471-0.471v-8.823c0-0.925,0.077-1.833,0.224-2.715
		C24.753,60.045,24.978,59.174,25.268,58.342z"/>
	<path fill-rule="evenodd" clip-rule="evenodd" fill="#FFC278" d="M44.352,39.496c0,1.116,0.129,6.809,0.129,6.809
		c-3.151,1.246-6.427,1.246-9.829,0c0-1.249-0.129-7.008-0.129-7.008C37.933,40.826,41.209,40.893,44.352,39.496z"/>
	<path fill-rule="evenodd" clip-rule="evenodd" fill="#1C1C1C" d="M44.822,39.496c0,1.304,0.127,6.783,0.127,6.799
		c0.004,0.201-0.12,0.376-0.297,0.445l0.001,0.002c-1.632,0.646-3.296,0.968-4.994,0.968c-1.692,0-3.416-0.321-5.169-0.964
		c-0.191-0.07-0.309-0.25-0.309-0.441c-0.001-1.423-0.127-6.982-0.127-6.999c-0.005-0.259,0.201-0.473,0.459-0.478
		c0.071-0.002,0.139,0.013,0.2,0.04c1.648,0.739,3.259,1.125,4.833,1.156c1.568,0.032,3.107-0.287,4.615-0.957
		c0.236-0.104,0.514,0.002,0.618,0.239c0.026,0.062,0.04,0.126,0.04,0.189H44.822L44.822,39.496z M44.004,45.982
		c-0.022-1.04-0.093-4.261-0.115-5.789c-1.427,0.543-2.88,0.799-4.36,0.77c-1.484-0.03-2.991-0.348-4.521-0.952
		c0.031,1.457,0.1,4.714,0.113,5.961c1.541,0.531,3.054,0.797,4.539,0.797C41.134,46.769,42.582,46.506,44.004,45.982z"/>
	
		<rect x="27.897" y="58.704" transform="matrix(0.2088 -0.978 0.978 0.2088 -25.0276 87.4137)" fill-rule="evenodd" clip-rule="evenodd" fill="#1C1C1C" width="27.221" height="0.94"/>
	<polygon fill-rule="evenodd" clip-rule="evenodd" fill="#DB5940" points="38.666,72.484 41.696,72.484 49.557,58.725 
		43.002,52.171 	"/>
	<path fill-rule="evenodd" clip-rule="evenodd" fill="#1C1C1C" d="M39.248,72.014h2.177l7.545-13.209l-5.688-5.689L39.248,72.014
		L39.248,72.014z M41.696,72.955h-3.611l4.639-21.729l7.419,7.419l-8.174,14.311H41.696z"/>
	
		<rect x="25.206" y="56.904" transform="matrix(-0.2087 -0.978 0.978 -0.2087 -11.4152 105.5132)" fill-rule="evenodd" clip-rule="evenodd" fill="#1C1C1C" width="23.542" height="0.94"/>
	<polygon fill-rule="evenodd" clip-rule="evenodd" fill="#DB5940" points="38.666,72.484 37.172,72.484 29.313,58.725 
		35.866,52.171 39.434,68.887 	"/>
	<path fill-rule="evenodd" clip-rule="evenodd" fill="#1C1C1C" d="M38.666,72.955H36.9c-2.726-4.769-5.451-9.539-8.174-14.311
		l7.419-7.419c1.256,5.887,2.512,11.774,3.77,17.661l-0.869,4.068H38.666L38.666,72.955z M37.444,72.014h0.842l0.667-3.127
		l-3.366-15.771l-5.688,5.689L37.444,72.014z"/>
	<path fill-rule="evenodd" clip-rule="evenodd" fill="#3F5359" d="M36.199,54.075l3.235,14.812l3.236-14.812l1.221-7.664
		c-2.857,1.104-5.828,1.104-8.913,0L36.199,54.075z"/>
	<path fill-rule="evenodd" clip-rule="evenodd" fill="#1C1C1C" d="M36.658,53.976l2.776,12.706
		c1.488-6.812,2.784-12.754,3.869-19.566c-1.242,0.396-2.503,0.595-3.783,0.595c-1.3,0-2.619-0.203-3.957-0.609L36.658,53.976
		L36.658,53.976z M38.974,68.985l-3.235-14.812h0.001l-1.22-7.655c-0.021-0.085-0.017-0.177,0.015-0.266
		c0.087-0.245,0.357-0.373,0.602-0.285c1.491,0.533,2.952,0.801,4.383,0.801c1.428,0,2.827-0.265,4.196-0.794
		c0.076-0.03,0.161-0.041,0.248-0.027c0.256,0.041,0.431,0.281,0.39,0.537l-1.215,7.632c-0.002,0.02-0.005,0.038-0.009,0.058
		l-3.234,14.804c-0.036,0.179-0.173,0.328-0.362,0.369C39.28,69.401,39.029,69.239,38.974,68.985z"/>
	<path fill-rule="evenodd" clip-rule="evenodd" fill="#FFC278" d="M39.646,10.677L39.646,10.677c6.395,0,11.626,5.231,11.626,11.626
		v8.553c0,6.395-5.231,11.626-11.625,11.626h0c-6.395,0-11.626-5.231-11.626-11.626v-8.553
		C28.02,15.908,33.251,10.677,39.646,10.677z"/>
	<path fill-rule="evenodd" clip-rule="evenodd" fill="#1C1C1C" d="M39.646,10.206c3.327,0,6.352,1.361,8.544,3.553
		c2.192,2.192,3.553,5.218,3.553,8.544v8.553c0,3.327-1.36,6.352-3.553,8.544s-5.217,3.553-8.544,3.553s-6.352-1.36-8.543-3.553
		c-2.192-2.192-3.553-5.217-3.553-8.544v-8.553c0-3.326,1.361-6.352,3.553-8.544C33.294,11.567,36.318,10.206,39.646,10.206
		L39.646,10.206z M47.523,14.426c-2.021-2.022-4.811-3.278-7.878-3.278c-3.067,0-5.856,1.256-7.878,3.278
		c-2.022,2.021-3.277,4.81-3.277,7.877v8.553c0,3.067,1.255,5.855,3.277,7.878c2.022,2.021,4.811,3.277,7.878,3.277
		c3.067,0,5.856-1.256,7.878-3.277c2.021-2.022,3.277-4.811,3.277-7.878v-8.553C50.801,19.235,49.545,16.447,47.523,14.426z"/>
	<circle fill-rule="evenodd" clip-rule="evenodd" fill="#3F5359" cx="34.176" cy="26.852" r="1.396"/>
	<path fill-rule="evenodd" clip-rule="evenodd" fill="#1C1C1C" d="M34.175,24.985c0.516,0,0.983,0.209,1.32,0.547v0.002
		c0.338,0.338,0.547,0.804,0.547,1.318s-0.209,0.98-0.547,1.318v0.002c-0.337,0.338-0.805,0.547-1.32,0.547
		c-0.514,0-0.98-0.209-1.318-0.547h-0.002c-0.338-0.338-0.547-0.805-0.547-1.32s0.209-0.982,0.547-1.32h0.002
		C33.195,25.194,33.662,24.985,34.175,24.985L34.175,24.985z M34.831,26.197L34.831,26.197c-0.168-0.166-0.399-0.27-0.655-0.27
		s-0.487,0.103-0.655,0.27l0.001,0.001c-0.167,0.167-0.271,0.398-0.271,0.654c0,0.255,0.104,0.486,0.271,0.654l-0.001,0.001
		c0.167,0.166,0.399,0.27,0.655,0.27s0.487-0.104,0.655-0.271l0,0.001c0.167-0.167,0.27-0.399,0.27-0.655
		S34.998,26.364,34.831,26.197z"/>
	<circle fill-rule="evenodd" clip-rule="evenodd" fill="#3F5359" cx="45.116" cy="26.852" r="1.396"/>
	<path fill-rule="evenodd" clip-rule="evenodd" fill="#1C1C1C" d="M45.116,25.928c-0.257,0-0.488,0.103-0.655,0.27l0.001,0.001
		c-0.168,0.167-0.271,0.398-0.271,0.654c0,0.255,0.104,0.486,0.271,0.654l-0.001,0.001c0.167,0.166,0.398,0.27,0.655,0.27
		c0.256,0,0.487-0.104,0.654-0.27l-0.001-0.001c0.168-0.168,0.271-0.399,0.271-0.654c0-0.256-0.104-0.488-0.271-0.655
		S45.372,25.928,45.116,25.928L45.116,25.928z M43.798,25.532c0.338-0.338,0.804-0.547,1.318-0.547c0.514,0,0.979,0.209,1.317,0.547
		l0.002,0.002c0.338,0.338,0.547,0.804,0.547,1.318c0,0.516-0.209,0.982-0.547,1.32h-0.002c-0.338,0.338-0.804,0.547-1.317,0.547
		c-0.515,0-0.98-0.209-1.318-0.547h-0.002c-0.338-0.338-0.547-0.805-0.547-1.32s0.209-0.982,0.547-1.32H43.798z"/>
	<path fill-rule="evenodd" clip-rule="evenodd" fill="#1C1C1C" d="M39.899,32.698c0,0.26-0.211,0.471-0.471,0.471
		c-0.26,0-0.471-0.211-0.471-0.471c0-0.791,0.003-1.197,0.223-1.5c0.267-0.367,0.613-0.384,1.292-0.384
		c0.271,0,0.432-0.142,0.499-0.32c0.031-0.082,0.045-0.171,0.046-0.262c0-0.089-0.015-0.181-0.044-0.266
		c-0.053-0.154-0.159-0.274-0.304-0.274c-0.26,0-0.471-0.211-0.471-0.471v-3.551c0-0.26,0.211-0.471,0.471-0.471
		c0.26,0,0.471,0.211,0.471,0.471v3.17c0.353,0.146,0.597,0.453,0.724,0.82c0.061,0.179,0.092,0.376,0.091,0.575
		c-0.001,0.198-0.035,0.399-0.104,0.585c-0.194,0.522-0.642,0.935-1.378,0.935c-0.358,0-0.526-0.012-0.53-0.006
		C39.9,31.809,39.899,32.109,39.899,32.698z"/>
	<path fill-rule="evenodd" clip-rule="evenodd" fill="#FFFFFF" d="M43.515,34.412c-0.345,1.941-2.051,3.428-4.086,3.428l0,0
		c-2.036,0-3.742-1.486-4.086-3.428H43.515z"/>
	<path fill-rule="evenodd" clip-rule="evenodd" fill="#1C1C1C" d="M43.974,34.518c-0.197,1.08-0.773,2.032-1.584,2.712
		c-0.804,0.674-1.837,1.081-2.961,1.081c-1.125,0-2.158-0.407-2.961-1.081c-0.816-0.685-1.396-1.646-1.588-2.736
		c-0.045-0.256,0.126-0.5,0.382-0.545c0.027-0.005,0.055-0.007,0.081-0.007h8.173c0.26,0,0.471,0.21,0.471,0.471
		C43.985,34.448,43.981,34.483,43.974,34.518L43.974,34.518z M41.786,36.509c0.509-0.427,0.901-0.987,1.121-1.626h-6.958
		c0.22,0.639,0.613,1.199,1.122,1.626c0.639,0.536,1.462,0.86,2.358,0.86S41.146,37.045,41.786,36.509z"/>
	<path fill-rule="evenodd" clip-rule="evenodd" fill="#DB5940" d="M28.027,14.855c0.06-0.876,0.498-1.561,1.024-1.561h0.796
		c0.567,0,1.032,0.794,1.032,1.766v5.626l0,0c0,2.906-1.24,5.342-2.86,5.832v-5.832v-5.626L28.027,14.855z"/>
	<path fill-rule="evenodd" clip-rule="evenodd" fill="#1C1C1C" d="M27.558,14.824c0.036-0.521,0.19-0.993,0.417-1.34
		c0.27-0.41,0.646-0.66,1.076-0.66h0.796c0.463,0,0.864,0.288,1.135,0.752c0.227,0.388,0.368,0.914,0.368,1.484v5.626
		c0,1.512-0.324,2.909-0.86,4.002c-0.57,1.163-1.389,1.993-2.334,2.279l-0.607,0.185V15.061l0.002-0.015L27.558,14.824
		L27.558,14.824z M28.759,13.999c-0.142,0.216-0.239,0.527-0.263,0.888l-0.007,0.174h0.001V25.76
		c0.443-0.322,0.84-0.836,1.158-1.483c0.474-0.967,0.76-2.22,0.76-3.59v-5.626c0-0.401-0.092-0.758-0.239-1.01
		c-0.103-0.176-0.219-0.285-0.322-0.285h-0.796C28.958,13.766,28.854,13.854,28.759,13.999z"/>
	<path fill-rule="evenodd" clip-rule="evenodd" fill="#DB5940" d="M51.271,19.701l-0.006,0.001c-0.05-0.511-0.411-0.911-0.847-0.911
		h-0.657c-0.469,0-0.853,0.464-0.853,1.032v3.287l0,0c0,1.698,1.024,3.121,2.362,3.408V23.11v-3.287V19.701z"/>
	<path fill-rule="evenodd" clip-rule="evenodd" fill="#1C1C1C" d="M50.801,19.77l-0.002-0.022c-0.015-0.151-0.073-0.283-0.158-0.375
		c-0.063-0.068-0.142-0.11-0.222-0.11h-0.657c-0.087,0-0.173,0.051-0.239,0.132c-0.088,0.105-0.143,0.257-0.143,0.43v3.287
		c0,0.745,0.221,1.426,0.585,1.952c0.229,0.33,0.515,0.599,0.836,0.779V19.77L50.801,19.77z M51.328,18.732
		c0.11,0.117,0.202,0.258,0.271,0.414l0.144-0.033v7.987l-0.568-0.122c-0.795-0.17-1.49-0.674-1.982-1.383
		c-0.469-0.678-0.753-1.546-0.753-2.485v-3.287c0-0.396,0.138-0.759,0.358-1.027v-0.002c0.242-0.292,0.583-0.474,0.965-0.474h0.657
		C50.772,18.32,51.091,18.477,51.328,18.732z"/>
	<path fill-rule="evenodd" clip-rule="evenodd" fill="#FFC278" d="M28.02,24.754l-0.007,0.001c-0.06-0.511-0.498-0.911-1.024-0.911
		h-0.796c-0.567,0-1.032,0.464-1.032,1.031v3.287l0,0c0,1.699,1.24,3.122,2.859,3.409v-3.409v-3.287V24.754z"/>
	<path fill-rule="evenodd" clip-rule="evenodd" fill="#1C1C1C" d="M27.549,24.838l-0.003-0.029
		c-0.016-0.139-0.085-0.263-0.186-0.353c-0.099-0.088-0.229-0.142-0.371-0.142h-0.796c-0.154,0-0.294,0.063-0.396,0.165
		c-0.102,0.102-0.165,0.242-0.165,0.396v3.287c0,0.729,0.264,1.397,0.7,1.918c0.324,0.385,0.742,0.688,1.218,0.873V24.838
		L27.549,24.838z M27.985,23.753c0.145,0.13,0.266,0.287,0.352,0.464l0.154-0.029v7.945l-0.552-0.098
		c-0.928-0.165-1.747-0.657-2.33-1.352c-0.573-0.685-0.92-1.564-0.92-2.521v-3.287c0-0.413,0.168-0.789,0.441-1.062
		c0.272-0.271,0.648-0.44,1.062-0.44h0.796C27.369,23.373,27.719,23.517,27.985,23.753z"/>
	<path fill-rule="evenodd" clip-rule="evenodd" fill="#FFC278" d="M51.271,24.754l0.007,0.001c0.061-0.511,0.498-0.911,1.025-0.911
		H53.1c0.567,0,1.031,0.464,1.031,1.031v3.287l0,0c0,1.699-1.239,3.122-2.859,3.409v-3.409v-3.287V24.754z"/>
	<path fill-rule="evenodd" clip-rule="evenodd" fill="#1C1C1C" d="M51.746,24.809l-0.004,0.028v6.116
		c0.477-0.185,0.895-0.488,1.219-0.873c0.436-0.521,0.699-1.189,0.699-1.918v-3.287c0-0.153-0.063-0.294-0.165-0.396
		s-0.242-0.165-0.396-0.165h-0.796c-0.143,0-0.273,0.054-0.372,0.142C51.831,24.546,51.762,24.67,51.746,24.809L51.746,24.809z
		 M50.955,24.216c0.087-0.177,0.206-0.334,0.352-0.463c0.266-0.236,0.615-0.38,0.997-0.38H53.1c0.414,0,0.789,0.169,1.062,0.44
		c0.271,0.272,0.441,0.648,0.441,1.062v3.287c0,0.957-0.347,1.838-0.921,2.521c-0.583,0.695-1.401,1.188-2.329,1.353l-0.552,0.098
		v-7.946L50.955,24.216z"/>
	<polygon fill-rule="evenodd" clip-rule="evenodd" fill="#DB5940" points="43.002,52.171 45.979,55.147 51.523,53.663 
		47.966,46.016 44.349,43.521 	"/>
	<path fill-rule="evenodd" clip-rule="evenodd" fill="#1C1C1C" d="M43.503,52.005l2.618,2.618l4.739-1.27l-3.267-7.024l-2.896-1.997
		L43.503,52.005L43.503,52.005z M45.646,55.48l-3.145-3.145C43,49.127,43.501,45.919,44,42.711l4.338,2.991l3.848,8.27l-6.348,1.701
		L45.646,55.48z"/>
	<polygon fill-rule="evenodd" clip-rule="evenodd" fill="#DB5940" points="35.866,52.171 32.889,55.147 27.345,53.663 
		30.902,46.016 34.52,43.521 	"/>
	<path fill-rule="evenodd" clip-rule="evenodd" fill="#1C1C1C" d="M36.199,52.503l-3.169,3.17l-6.347-1.701
		c1.282-2.757,2.563-5.514,3.847-8.27l4.338-2.991l1.498,9.625L36.199,52.503L36.199,52.503z M32.748,54.623l2.618-2.618
		l-1.194-7.673l-2.896,1.997l-3.267,7.024L32.748,54.623z"/>
	<path fill-rule="evenodd" clip-rule="evenodd" fill="#1C1C1C" d="M39.899,32.698c0,0.26-0.211,0.471-0.471,0.471
		c-0.26,0-0.471-0.211-0.471-0.471c0-0.791,0.003-1.197,0.223-1.5c0.267-0.367,0.613-0.384,1.292-0.384
		c0.271,0,0.432-0.142,0.499-0.32c0.031-0.082,0.045-0.171,0.046-0.262c0-0.089-0.015-0.181-0.044-0.266
		c-0.053-0.154-0.159-0.274-0.304-0.274c-0.26,0-0.471-0.211-0.471-0.471v-3.551c0-0.26,0.211-0.471,0.471-0.471
		c0.26,0,0.471,0.211,0.471,0.471v3.17c0.353,0.146,0.597,0.453,0.724,0.82c0.061,0.179,0.092,0.376,0.091,0.575
		c-0.001,0.198-0.035,0.399-0.104,0.585c-0.194,0.522-0.642,0.935-1.378,0.935c-0.358,0-0.526-0.012-0.53-0.006
		C39.9,31.809,39.899,32.109,39.899,32.698z"/>
	<path fill-rule="evenodd" clip-rule="evenodd" fill="#1C1C1C" d="M34.175,22.307c1.255,0,2.392,0.509,3.214,1.331
		c0.823,0.823,1.332,1.96,1.332,3.215s-0.509,2.392-1.332,3.214c-0.822,0.823-1.959,1.332-3.214,1.332
		c-1.254,0-2.391-0.509-3.214-1.332c-0.823-0.822-1.332-1.959-1.332-3.214s0.509-2.392,1.332-3.215
		C31.784,22.815,32.921,22.307,34.175,22.307L34.175,22.307z M36.724,24.304c-0.652-0.652-1.554-1.056-2.549-1.056
		c-0.995,0-1.896,0.403-2.548,1.056c-0.652,0.652-1.056,1.554-1.056,2.549s0.404,1.896,1.056,2.548
		c0.652,0.652,1.554,1.057,2.548,1.057c0.995,0,1.896-0.404,2.549-1.057c0.652-0.652,1.056-1.553,1.056-2.548
		S37.376,24.956,36.724,24.304L36.724,24.304z M45.116,22.307c1.255,0,2.392,0.509,3.214,1.331c0.823,0.823,1.332,1.96,1.332,3.215
		s-0.509,2.392-1.332,3.214c-0.822,0.823-1.959,1.332-3.214,1.332s-2.392-0.509-3.215-1.332c-0.822-0.822-1.332-1.959-1.332-3.214
		s0.509-2.392,1.332-3.215C42.725,22.815,43.861,22.307,45.116,22.307L45.116,22.307z M47.664,24.304
		c-0.652-0.652-1.554-1.056-2.548-1.056c-0.995,0-1.896,0.403-2.549,1.056s-1.056,1.554-1.056,2.549s0.403,1.896,1.056,2.548
		s1.554,1.057,2.549,1.057c0.994,0,1.896-0.404,2.548-1.057s1.056-1.553,1.056-2.548S48.316,24.956,47.664,24.304z"/>
	<path fill-rule="evenodd" clip-rule="evenodd" fill="#DB5940" d="M34.392,17.837c2.466-0.421,4.565-3.53,5.254-7.403
		c0.552-3.104-1.86-3.408-3.234-3.174l-4.041,0.69c-1.3,0.222-2.498,1.191-3.441,2.625c-1.105,1.681-1.861,3.999-2.021,6.503
		c-0.021,0.326-0.032,0.656-0.032,0.988c0,0.975,0.092,1.898,0.262,2.752c0.905-1.25,2.015-2.087,3.211-2.291L34.392,17.837z"/>
	<path fill-rule="evenodd" clip-rule="evenodd" fill="#1C1C1C" d="M34.313,17.373c1.088-0.186,2.113-0.979,2.955-2.166
		c0.896-1.263,1.578-2.962,1.915-4.854c0.088-0.496,0.094-0.905,0.037-1.24c-0.077-0.45-0.27-0.766-0.524-0.98
		c-0.264-0.224-0.604-0.351-0.957-0.413c-0.434-0.078-0.881-0.058-1.247,0.005l-4.041,0.689c-0.561,0.097-1.105,0.354-1.616,0.743
		c-0.551,0.421-1.062,0.991-1.513,1.677c-0.536,0.814-0.987,1.791-1.323,2.871c-0.328,1.055-0.544,2.207-0.621,3.403
		c-0.011,0.174-0.019,0.334-0.023,0.479c-0.004,0.125-0.006,0.284-0.006,0.479c0,0.479,0.021,0.933,0.062,1.362l0.031,0.286
		c0.301-0.319,0.619-0.601,0.951-0.837c0.589-0.421,1.221-0.701,1.878-0.814L34.313,17.373L34.313,17.373z M38.033,15.752
		c-0.984,1.386-2.216,2.318-3.562,2.549l-4.041,0.69c-0.516,0.088-1.018,0.313-1.492,0.651c-0.503,0.358-0.976,0.846-1.404,1.435
		c-0.066,0.102-0.172,0.178-0.301,0.203c-0.255,0.051-0.503-0.115-0.554-0.37c-0.087-0.438-0.155-0.903-0.202-1.394
		c-0.046-0.479-0.07-0.965-0.07-1.45c0-0.135,0.003-0.306,0.01-0.509c0.006-0.185,0.014-0.354,0.023-0.509
		c0.081-1.271,0.312-2.496,0.661-3.621c0.361-1.162,0.852-2.22,1.438-3.109c0.51-0.776,1.092-1.426,1.726-1.908
		c0.631-0.481,1.313-0.802,2.028-0.924l4.041-0.69c0.458-0.078,1.02-0.103,1.567-0.005c0.502,0.089,0.997,0.28,1.402,0.623
		c0.415,0.352,0.726,0.849,0.844,1.54c0.075,0.439,0.071,0.955-0.037,1.561C39.75,12.543,39.01,14.375,38.033,15.752z"/>
	<path fill-rule="evenodd" clip-rule="evenodd" fill="#DB5940" d="M45.005,17.935c-2.466-0.421-4.565-3.53-5.254-7.403
		c-0.553-3.104,1.859-3.408,3.233-3.174l4.041,0.69c1.3,0.222,2.498,1.191,3.441,2.625c1.104,1.681,1.86,3.999,2.021,6.503
		c0.021,0.327,0.031,0.656,0.031,0.988c0,0.975-0.092,1.898-0.263,2.752c-0.904-1.25-2.014-2.087-3.21-2.291L45.005,17.935z"/>
	<path fill-rule="evenodd" clip-rule="evenodd" fill="#1C1C1C" d="M44.926,18.398c-1.346-0.229-2.578-1.163-3.562-2.549
		c-0.977-1.376-1.716-3.209-2.077-5.237c-0.107-0.605-0.111-1.121-0.037-1.56c0.118-0.692,0.429-1.189,0.844-1.541
		c0.405-0.343,0.899-0.533,1.402-0.623c0.548-0.098,1.109-0.073,1.567,0.005l4.041,0.69c0.715,0.122,1.397,0.442,2.028,0.924
		c0.633,0.482,1.216,1.132,1.726,1.907c0.585,0.891,1.076,1.948,1.438,3.111c0.349,1.124,0.579,2.35,0.66,3.62
		c0.01,0.153,0.018,0.323,0.023,0.509c0.007,0.203,0.01,0.374,0.01,0.509c0,0.486-0.023,0.971-0.069,1.45
		c-0.047,0.491-0.114,0.956-0.202,1.394c-0.051,0.255-0.299,0.421-0.554,0.37c-0.128-0.025-0.234-0.102-0.301-0.203
		c-0.429-0.589-0.901-1.076-1.404-1.435c-0.474-0.338-0.976-0.563-1.492-0.651L44.926,18.398L44.926,18.398z M42.129,15.305
		c0.843,1.188,1.866,1.98,2.955,2.166l4.041,0.691c0.658,0.112,1.29,0.393,1.879,0.813c0.331,0.237,0.649,0.519,0.951,0.838
		l0.03-0.286c0.041-0.43,0.063-0.884,0.063-1.362c0-0.195-0.002-0.354-0.007-0.479c-0.004-0.146-0.013-0.306-0.023-0.479
		c-0.076-1.196-0.292-2.349-0.62-3.403c-0.336-1.08-0.787-2.057-1.322-2.871c-0.451-0.686-0.962-1.256-1.513-1.676
		c-0.511-0.39-1.056-0.647-1.616-0.743l-4.041-0.69c-0.365-0.063-0.813-0.082-1.247-0.005c-0.354,0.063-0.693,0.19-0.957,0.413
		c-0.254,0.215-0.447,0.53-0.523,0.981c-0.057,0.335-0.052,0.743,0.037,1.239C40.551,12.343,41.232,14.042,42.129,15.305z"/>
</g>
</svg>
